<?xml version="1.0" standalone="no"?>
<!DOCTYPE svg PUBLIC "-//W3C//DTD SVG 20010904//EN"
 "http://www.w3.org/TR/2001/REC-SVG-20010904/DTD/svg10.dtd">
<svg version="1.0" xmlns="http://www.w3.org/2000/svg"
 width="260.000000pt" height="260.000000pt" viewBox="0 0 260.000000 260.000000"
 preserveAspectRatio="xMidYMid meet">
<metadata>
Created by potrace 1.11, written by Peter Selinger 2001-2013
</metadata>
<g transform="translate(0.000000,260.000000) scale(0.100000,-0.100000)"
fill="#000000" stroke="none">
<path d="M503 2065 c-33 -30 -35 -73 -3 -103 20 -19 46 -19 796 -18 l776 1 19
24 c24 30 24 62 0 92 l-19 24 -773 0 c-762 0 -774 0 -796 -20z"/>
<path d="M280 1881 c-143 -28 -260 -164 -261 -307 -2 -154 125 -296 266 -297
169 -2 284 156 208 286 -43 72 -132 98 -198 57 -55 -34 -82 -120 -54 -171 9
-19 9 -19 -10 -10 -54 29 -84 118 -61 185 24 74 141 138 222 121 79 -17 144
-70 173 -139 15 -35 17 -100 17 -555 0 -309 4 -523 10 -534 25 -48 112 -40
125 12 8 30 8 1034 0 1073 -30 148 -183 277 -336 283 -36 1 -82 -1 -101 -4z"/>
<path d="M2135 1876 c-111 -35 -190 -103 -238 -204 l-32 -67 -2 -525 c-2 -360
1 -534 8 -552 22 -53 108 -56 126 -4 4 12 8 253 8 536 1 507 2 516 23 560 34
71 125 130 200 130 82 0 184 -74 197 -143 10 -51 -10 -108 -51 -147 -27 -25
-35 -29 -30 -15 37 102 -23 198 -124 197 -46 -1 -76 -15 -108 -51 -62 -72 -52
-181 24 -251 125 -115 321 -64 405 106 34 69 34 189 1 254 -76 146 -256 224
-407 176z"/>
<path d="M818 1839 c-31 -31 -30 -71 3 -100 17 -15 60 -16 462 -16 243 0 452
3 463 8 26 9 44 56 34 84 -19 51 -12 50 -489 50 l-446 1 -27 -27z"/>
<path d="M964 1602 c-12 -2 -30 -12 -40 -24 -18 -19 -19 -49 -21 -527 -1 -333
1 -515 8 -533 22 -54 103 -61 135 -12 16 23 17 75 17 533 0 354 -4 514 -11
528 -13 23 -56 41 -88 35z"/>
<path d="M1274 1602 c-12 -2 -30 -12 -40 -24 -18 -19 -19 -49 -19 -536 l-1
-517 27 -27 c34 -35 69 -36 106 -4 l28 24 1 504 c0 373 -3 511 -12 534 -13 33
-51 53 -90 46z"/>
<path d="M1587 1602 c-16 -2 -34 -14 -44 -29 -15 -23 -17 -76 -15 -542 l1
-516 26 -23 c34 -29 67 -28 102 2 l28 24 1 514 c0 282 -3 521 -8 530 -12 24
-57 44 -91 40z"/>
</g>
</svg>
